<?xml version="1.0" encoding="UTF-8" standalone="no"?>
<svg
   xmlns:dc="http://purl.org/dc/elements/1.1/"
   xmlns:cc="http://creativecommons.org/ns#"
   xmlns:rdf="http://www.w3.org/1999/02/22-rdf-syntax-ns#"
   xmlns:svg="http://www.w3.org/2000/svg"
   xmlns="http://www.w3.org/2000/svg"
   xmlns:sodipodi="http://sodipodi.sourceforge.net/DTD/sodipodi-0.dtd"
   xmlns:inkscape="http://www.inkscape.org/namespaces/inkscape"
   width="100"
   height="100"
   version="1.1"
   id="svg2"
   inkscape:version="0.91 r13725"
   sodipodi:docname="In_progress_icon.svg">
  <defs
     id="defs18" />
  <sodipodi:namedview
     pagecolor="#ffffff"
     bordercolor="#666666"
     borderopacity="1"
     objecttolerance="10"
     gridtolerance="10"
     guidetolerance="10"
     inkscape:pageopacity="0"
     inkscape:pageshadow="2"
     inkscape:window-width="1920"
     inkscape:window-height="1016"
     id="namedview16"
     showgrid="false"
     inkscape:zoom="6.675088"
     inkscape:cx="57.493997"
     inkscape:cy="69.775258"
     inkscape:window-x="0"
     inkscape:window-y="27"
     inkscape:window-maximized="1"
     inkscape:current-layer="svg2" />
  <metadata
     id="metadata4">
    <rdf:RDF>
      <cc:Work
         rdf:about="">
        <dc:format>image/svg+xml</dc:format>
        <dc:type
           rdf:resource="http://purl.org/dc/dcmitype/StillImage" />
        <dc:title />
      </cc:Work>
    </rdf:RDF>
  </metadata>
  <circle
     cx="50"
     cy="50"
     r="50"
     style="fill:#4595ff"
     id="circle6" />
  <g
     style="fill:#ffffff"
     id="g8">
    <circle
       cx="21.4907"
       cy="49.3511"
       r="13.0113"
       id="circle10" />
    <circle
       cx="49.4985"
       cy="49.3511"
       r="13.0113"
       id="circle12" />
    <circle
       cx="77.5061"
       cy="49.3511"
       r="13.0113"
       id="circle14" />
  </g>
  <path
     style="fill:#ff9900;stroke:#ff9900;stroke-width:0.44618642;stroke-miterlimit:4;stroke-dasharray:none"
     d="M 44.40678,99.538767 C 32.664089,98.016746 22.50757,93.003195 14.433012,84.742852 7.5945928,77.747085 3.3689486,69.869597 1.1235384,59.931199 0.10651275,55.429746 0.11736267,44.855123 1.1439015,40.084746 4.4301381,24.813436 13.989467,12.425111 27.899376,5.4112305 40.622164,-1.0040598 56.526475,-1.4564954 69.663419,4.2231538 c 5.989793,2.5896369 10.350433,5.6080076 15.406742,10.6643142 6.840292,6.840294 10.714436,13.550954 13.246958,22.945932 1.026779,3.809074 1.120868,4.833947 1.120868,12.208973 0,7.371398 -0.09442,8.401085 -1.118805,12.20083 -2.418559,8.971178 -6.781851,16.549242 -13.224877,22.968661 -9.579114,9.544022 -22.481631,14.789266 -35.80353,14.555157 -1.987042,-0.03491 -4.184843,-0.137631 -4.883995,-0.228254 z M 25.368008,61.913419 c 3.265814,-0.98297 6.094534,-3.396597 7.72389,-6.59047 3.284113,-6.43753 0.906638,-14.042898 -5.499164,-17.591422 -2.029068,-1.124012 -2.633935,-1.248087 -6.06731,-1.244574 -3.30606,0.0034 -4.099082,0.15407 -5.959091,1.132337 -4.483491,2.358078 -7.0822792,6.589155 -7.128305,11.605566 -0.081459,8.878288 8.420064,15.249953 16.92998,12.688563 z m 27.966102,0 c 5.207665,-1.567444 9.165653,-6.789127 9.207754,-12.147567 0.04148,-5.282411 -2.399635,-9.495785 -6.967538,-12.025895 -2.045898,-1.133199 -2.64458,-1.256607 -6.082801,-1.253868 -4.250169,0.0034 -6.054317,0.676422 -9.037274,3.371344 -3.024638,2.73258 -4.647233,7.656419 -3.871331,11.747741 1.479692,7.802381 9.230347,12.571936 16.75119,10.308245 z m 28.002691,-0.0025 C 88.718165,59.718847 92.65486,51.158305 89.546623,44.058225 88.473898,41.607825 85.940326,38.946494 83.41672,37.619209 81.554763,36.63992 80.767144,36.490659 77.457627,36.489911 74.315085,36.48919 73.329271,36.656725 71.855,37.442 c -2.834911,1.510027 -4.639144,3.343156 -6.030072,6.126648 -2.859754,5.722873 -1.043203,12.957615 4.150754,16.531153 3.473237,2.389652 7.338178,3.005758 11.361119,1.811076 z"
     id="path4148"
     inkscape:connector-curvature="0" />
</svg>
